<?xml version="1.0" standalone="no"?>
<!DOCTYPE svg PUBLIC "-//W3C//DTD SVG 20010904//EN"
 "http://www.w3.org/TR/2001/REC-SVG-20010904/DTD/svg10.dtd">
<svg version="1.0" xmlns="http://www.w3.org/2000/svg"
 width="700.000000pt" height="700.000000pt" viewBox="0 0 700.000000 700.000000"
 preserveAspectRatio="xMidYMid meet">
<metadata>
Created by potrace 1.11, written by Peter Selinger 2001-2013
</metadata>
<g transform="translate(0.000000,700.000000) scale(0.100000,-0.100000)"
fill="#000000" stroke="none">
<path d="M3305 6994 c-227 -32 -400 -82 -572 -164 -209 -100 -363 -211 -524
-376 -65 -67 -180 -209 -205 -252 -1 -2 -67 -7 -147 -12 -452 -29 -838 -202
-1158 -520 -285 -283 -453 -614 -514 -1018 -24 -155 -17 -441 14 -596 91 -449
351 -852 722 -1119 108 -77 331 -193 448 -232 l81 -26 2 -1217 3 -1217 27 -57
c31 -66 91 -128 156 -160 l47 -23 1815 0 1815 0 47 23 c65 32 125 94 156 160
l27 57 3 1217 2 1217 53 16 c448 146 834 484 1048 920 120 245 169 450 176
740 6 207 -5 310 -52 496 -158 622 -666 1129 -1292 1288 -102 26 -260 51 -321
51 -27 0 -76 3 -108 6 l-59 7 -50 70 c-62 87 -216 251 -310 327 -220 180 -499
311 -791 371 -75 15 -148 21 -304 24 -113 2 -218 1 -235 -1z m368 -649 c121
-18 253 -62 366 -120 207 -108 353 -258 500 -513 47 -81 105 -131 182 -157 39
-13 77 -15 225 -9 183 7 263 0 384 -33 383 -104 687 -392 804 -761 212 -671
-209 -1362 -906 -1488 -163 -29 -240 -82 -297 -203 l-26 -56 -3 -547 -3 -548
-1400 0 -1399 0 0 529 c0 500 -1 532 -20 593 -23 75 -78 144 -145 184 -26 15
-84 32 -146 44 -451 86 -781 365 -919 778 -223 667 202 1374 903 1498 74 13
128 15 276 10 151 -6 192 -4 230 9 71 23 139 81 181 155 114 197 217 321 349
420 239 181 561 261 864 215z m1227 -5390 l0 -315 -1400 0 -1400 0 0 315 0
315 1400 0 1400 0 0 -315z"/>
</g>
</svg>
